…
    ## 

    ## # A tibble: 501 x 9
    ##    gender   age sugar_factor treat  happiness happy weight no_weight treat2
    ##    <chr>  <int>        <dbl> <chr>  <chr>     <lgl>  <dbl> <lgl>     <chr> 
    ##  1 male      80       0.894  ice c… happy     TRUE   1.38  TRUE      pizza 
    ##  2 female    60       0.834  candy  happy     TRUE   0.902 TRUE      pizza 
    ##  3 male       8       0.222  candy  happy     TRUE   1.40  TRUE      ice c…
    ##  4 female    61       0.666  candy  happy     TRUE   1.38  TRUE      pizza 
    ##  5 male      53       0.586  candy  happy     TRUE   1.12  TRUE      ice c…
    ##  6 female    73       0.793  ice c… happy     TRUE   0.538 TRUE      candy 
    ##  7 female     6       0.358  candy  happy     TRUE   0.721 TRUE      ice c…
    ##  8 male      26       0.401  ice c… happy     TRUE   0.912 TRUE      candy 
    ##  9 male      63       0.206  candy  happy     TRUE   0.998 TRUE      candy 
    ## 10 male      76       0.0423 candy  happy     TRUE   1.72  TRUE      candy 
    ## # … with 491 more rows
…
    ## 

    ## # A tibble: 501 x 9
    ##    gender   age sugar_factor treat  happiness happy weight no_weight treat2
    ##    <fct>  <int>        <dbl> <fct>  <fct>     <fct>  <dbl>     <dbl> <chr> 
    ##  1 male      80       0.894  ice c… happy     Yes    1.38          1 pizza 
    ##  2 female    60       0.834  candy  happy     Yes    0.902         1 pizza 
    ##  3 male       8       0.222  candy  happy     yes    1.40          1 ice c…
    ##  4 female    61       0.666  candy  happy     Yes    1.38          1 pizza 
    ##  5 male      53       0.586  candy  happy     Yes    1.12          1 ice c…
    ##  6 female    73       0.793  ice c… happy     Yes    0.538         1 candy 
    ##  7 female     6       0.358  candy  happy     yes    0.721         1 ice c…
    ##  8 male      26       0.401  ice c… happy     Yes    0.912         1 candy 
    ##  9 male      63       0.206  candy  happy     Yes    0.998         1 candy 
    ## 10 male      76       0.0423 candy  happy     Yes    1.72          1 candy 
    ## # … with 491 more rows

``` r
# suppress messages
example_dat %>% 
  dplyr::rename(`sugar   factor` = sugar_factor) %>% 
  preprocess(quiet = TRUE)
```

    ## # A tibble: 501 x 9
    ##    gender   age sugar_factor treat  happiness happy weight no_weight treat2
    ##    <chr>  <int>        <dbl> <chr>  <chr>     <lgl>  <dbl> <lgl>     <chr> 
    ##  1 male      80       0.894  ice c… happy     TRUE   1.38  TRUE      pizza 
    ##  2 female    60       0.834  candy  happy     TRUE   0.902 TRUE      pizza 
    ##  3 male       8       0.222  candy  happy     TRUE   1.40  TRUE      ice c…
    ##  4 female    61       0.666  candy  happy     TRUE   1.38  TRUE      pizza 
    ##  5 male      53       0.586  candy  happy     TRUE   1.12  TRUE      ice c…
    ##  6 female    73       0.793  ice c… happy     TRUE   0.538 TRUE      candy 
    ##  7 female     6       0.358  candy  happy     TRUE   0.721 TRUE      ice c…
    ##  8 male      26       0.401  ice c… happy     TRUE   0.912 TRUE      candy 
    ##  9 male      63       0.206  candy  happy     TRUE   0.998 TRUE      candy 
    ## 10 male      76       0.0423 candy  happy     TRUE   1.72  TRUE      candy 
    ## # … with 491 more rows
…
